{
  "Kolkata Knight Riders": 117,
  "Mumbai Indians": 124,
  "Delhi Daredevils": 100,
  "Chennai Super Kings": 99,
  "Kings XI Punjab": 116,
  "Rajasthan Royals": 148,
  "Sunrisers Hyderabad": 108,
  "Royal Challengers Bangalore": 114
}